{
    "code": 0,
    "message": "OK",
    "timestamp": 1538470503917,
    "data": {
        "endRow": 6,
        "firstPage": 1,
        "hasNextPage": true,
        "hasPreviousPage": false,
        "isFirstPage": true,
        "isLastPage": false,
        "lastPage": 2,
        "list": [{
            "brandGameId": "dt",
            "chsName": "沙漠财宝　",
            "chtName": "沙漠财宝　",
            "enName": "Desert Treasure",
            "gameTestUrl": "http://cache.download.banner.greatfortune88.com/casinoclient.html?mode=offline&language=zh-cn&affiliates=1&game=dt",
            "gameUrl": "http://cache.download.banner.greatfortune88.com/casinoclient.html?game=dt&language=zh-cn",
            "html5Status": 0,
            "id": 6,
            "imgUrl": "/static/sport/images/pt/game_icon/dt.jpg",
            "isProgressive": false,
            "isRecommend": true,
            "payLine": 2,
            "pcStatus": 0,
            "phoneStatus": 0,
            "platform": 2,
            "platformItemId": "Desert Treasure (dt)",
            "platformTypeId": "Slot Machines",
            "progressiveCode": "",
            "status": 0,
            "typeId": 10,
            "updatedTime": 1484875727000,
            "webStatus": 0
        }, {
            "brandGameId": "nian_k",
            "chsName": "年年有余",
            "chtName": "年年有余",
            "enName": "Nian Nian You Yu",
            "gameTestUrl": "http://cache.download.banner.greatfortune88.com/casinoclient.html?mode=offline&language=zh-cn&affiliates=1&game=nian_k",
            "gameUrl": "http://cache.download.banner.greatfortune88.com/casinoclient.html?game=nian_k&language=zh-cn",
            "html5Status": 0,
            "id": 29,
            "imgUrl": "/static/sport/images/pt/game_icon/nian_k.jpg",
            "isProgressive": true,
            "isRecommend": true,
            "payLine": 2,
            "pcStatus": 0,
            "phoneStatus": 0,
            "platform": 2,
            "platformItemId": "Nian Nian You Yu asia(nian_k)",
            "platformTypeId": "Slot Machines",
            "progressiveCode": "drgj-1",
            "status": 0,
            "typeId": 10,
            "updatedTime": 1480645912000,
            "webStatus": 0
        }, {
            "brandGameId": "fcgz",
            "chsName": "翡翠公主",
            "chtName": "翡翠公主",
            "enName": "Fei Cui Gong Zhu",
            "gameTestUrl": "http://cache.download.banner.greatfortune88.com/casinoclient.html?mode=offline&language=zh-cn&affiliates=1&game=fcgz",
            "gameUrl": "http://cache.download.banner.greatfortune88.com/casinoclient.html?game=fcgz&language=zh-cn",
            "html5Status": 0,
            "id": 30,
            "imgUrl": "/static/sport/images/pt/game_icon/fcgz.jpg",
            "isProgressive": true,
            "isRecommend": true,
            "payLine": 2,
            "pcStatus": 0,
            "phoneStatus": 0,
            "platform": 2,
            "platformItemId": "Fei Cui Gong Zhu(fcgz)",
            "platformTypeId": "Slot Machines",
            "progressiveCode": "drgj-1",
            "status": 0,
            "typeId": 10,
            "updatedTime": 1480645912000,
            "webStatus": 0
        }, {
            "brandGameId": "hk",
            "chsName": "高速公路之王",
            "chtName": "高速公路之王",
            "enName": "Highway Kings",
            "gameTestUrl": "http://cache.download.banner.greatfortune88.com/casinoclient.html?mode=offline&language=zh-cn&affiliates=1&game=hk",
            "gameUrl": "http://cache.download.banner.greatfortune88.com/casinoclient.html?game=hk&language=zh-cn",
            "html5Status": 0,
            "id": 82,
            "imgUrl": "/static/sport/images/pt/game_icon/hk.jpg",
            "isProgressive": true,
            "isRecommend": true,
            "payLine": 2,
            "pcStatus": 0,
            "phoneStatus": 0,
            "platform": 2,
            "platformItemId": "Highway Kings (hk)",
            "platformTypeId": "Slot Machines",
            "progressiveCode": "ls",
            "status": 0,
            "typeId": 10,
            "updatedTime": 1481790517000,
            "webStatus": 0
        }, {
            "brandGameId": "ssp",
            "chsName": "圣诞惊喜",
            "chtName": "圣诞惊喜",
            "enName": "Santa Surprise",
            "gameTestUrl": "http://cache.download.banner.greatfortune88.com/casinoclient.html?mode=offline&language=zh-cn&affiliates=1&game=ssp",
            "gameUrl": "http://cache.download.banner.greatfortune88.com/casinoclient.html?game=ssp&language=zh-cn",
            "html5Status": 0,
            "id": 95,
            "imgUrl": "/static/sport/images/pt/game_icon/ssp.jpg",
            "isProgressive": false,
            "isRecommend": true,
            "payLine": 2,
            "pcStatus": 0,
            "phoneStatus": 0,
            "platform": 2,
            "platformItemId": "Santa Surprise (ssp)",
            "platformTypeId": "Slot Machines",
            "progressiveCode": "",
            "status": 0,
            "typeId": 10,
            "updatedTime": 1481790517000,
            "webStatus": 0
        }, {
            "brandGameId": "grel",
            "chsName": "金色召集",
            "chtName": "金色召集",
            "enName": "Gold Rally",
            "gameTestUrl": "http://cache.download.banner.greatfortune88.com/casinoclient.html?mode=offline&language=zh-cn&affiliates=1&game=grel",
            "gameUrl": "http://cache.download.banner.greatfortune88.com/casinoclient.html?game=grel&language=zh-cn",
            "html5Status": 0,
            "id": 162,
            "imgUrl": "/static/sport/images/pt/game_icon/grel.jpg",
            "isProgressive": true,
            "isRecommend": true,
            "payLine": 2,
            "pcStatus": 0,
            "phoneStatus": 0,
            "platform": 2,
            "platformItemId": "Gold Rally (grel)",
            "platformTypeId": "Slot Machines",
            "progressiveCode": "grel",
            "status": 0,
            "typeId": 10,
            "updatedTime": 1481790518000,
            "webStatus": 0
        }],
        "navigatePages": 8,
        "navigatepageNums": [1, 2],
        "nextPage": 2,
        "pageNum": 1,
        "pageSize": 6,
        "pages": 2,
        "prePage": 0,
        "size": 6,
        "startRow": 1,
        "total": 12
    },
    "identifier": null
}