{
    "code": 0,
    "message": "OK",
    "timestamp": 1538501986925,
    "data": {
        "endRow": 30,
        "firstPage": 1,
        "hasNextPage": true,
        "hasPreviousPage": true,
        "isFirstPage": false,
        "isLastPage": false,
        "lastPage": 7,
        "list": [{
            "brandGameId": "snsb",
            "chsName": "日落海滩",
            "chtName": "日落海滩",
            "enName": "Sunset Beach",
            "gameTestUrl": "http://cache.download.banner.greatfortune88.com/casinoclient.html?mode=offline&language=zh-cn&affiliates=1&game=snsb",
            "gameUrl": "http://cache.download.banner.greatfortune88.com/casinoclient.html?game=snsb&language=zh-cn",
            "html5Status": 0,
            "id": 98,
            "imgUrl": "/static/sport/images/pt/game_icon/snsb.jpg",
            "isProgressive": false,
            "isRecommend": false,
            "payLine": 2,
            "pcStatus": 0,
            "phoneStatus": 0,
            "platform": 2,
            "platformItemId": "Sunset Beach (snsb)",
            "platformTypeId": "Slot Machines",
            "progressiveCode": "",
            "status": 0,
            "typeId": 10,
            "updatedTime": 1481790517000,
            "webStatus": 0
        }, {
            "brandGameId": "bl",
            "chsName": "海滨嘉年华",
            "chtName": "海滨嘉年华",
            "enName": "Beach Life",
            "gameTestUrl": "http://cache.download.banner.greatfortune88.com/casinoclient.html?mode=offline&language=zh-cn&affiliates=1&game=bl",
            "gameUrl": "http://cache.download.banner.greatfortune88.com/casinoclient.html?game=bl&language=zh-cn",
            "html5Status": 0,
            "id": 106,
            "imgUrl": "/static/sport/images/pt/game_icon/bl.jpg",
            "isProgressive": true,
            "isRecommend": false,
            "payLine": 2,
            "pcStatus": 0,
            "phoneStatus": 0,
            "platform": 2,
            "platformItemId": "Beach Life (bl)",
            "platformTypeId": "Slot Machines",
            "progressiveCode": "bl",
            "status": 0,
            "typeId": 10,
            "updatedTime": 1480645913000,
            "webStatus": 0
        }, {
            "brandGameId": "rky",
            "chsName": "洛基传奇",
            "chtName": "洛基传奇",
            "enName": "Rocky",
            "gameTestUrl": "http://cache.download.banner.greatfortune88.com/casinoclient.html?mode=offline&language=zh-cn&affiliates=1&game=rky",
            "gameUrl": "http://cache.download.banner.greatfortune88.com/casinoclient.html?game=rky&language=zh-cn",
            "html5Status": 0,
            "id": 109,
            "imgUrl": "/static/sport/images/pt/game_icon/rky.jpg",
            "isProgressive": false,
            "isRecommend": false,
            "payLine": 2,
            "pcStatus": 0,
            "phoneStatus": 0,
            "platform": 2,
            "platformItemId": "Rocky (rky)",
            "platformTypeId": "Video Slots",
            "progressiveCode": "",
            "status": 0,
            "typeId": 4,
            "updatedTime": 1480645913000,
            "webStatus": 0
        }, {
            "brandGameId": "fbr",
            "chsName": "终极足球",
            "chtName": "终极足球",
            "enName": "Football Rules",
            "gameTestUrl": "http://cache.download.banner.greatfortune88.com/casinoclient.html?mode=offline&language=zh-cn&affiliates=1&game=fbr",
            "gameUrl": "http://cache.download.banner.greatfortune88.com/casinoclient.html?game=fbr&language=zh-cn",
            "html5Status": 0,
            "id": 112,
            "imgUrl": "/static/sport/images/pt/game_icon/fbr.jpg",
            "isProgressive": true,
            "isRecommend": false,
            "payLine": 2,
            "pcStatus": 0,
            "phoneStatus": 0,
            "platform": 2,
            "platformItemId": "Football Rules (fbr)",
            "platformTypeId": "Slot Machines",
            "progressiveCode": "ls",
            "status": 0,
            "typeId": 10,
            "updatedTime": 1480645913000,
            "webStatus": 0
        }, {
            "brandGameId": "fow",
            "chsName": "惊异之林",
            "chtName": "惊异之林",
            "enName": "Forest of Wonders",
            "gameTestUrl": "http://cache.download.banner.greatfortune88.com/casinoclient.html?mode=offline&language=zh-cn&affiliates=1&game=fow",
            "gameUrl": "http://cache.download.banner.greatfortune88.com/casinoclient.html?game=fow&language=zh-cn",
            "html5Status": 0,
            "id": 113,
            "imgUrl": "/static/sport/images/pt/game_icon/fow.jpg",
            "isProgressive": true,
            "isRecommend": false,
            "payLine": 2,
            "pcStatus": 0,
            "phoneStatus": 0,
            "platform": 2,
            "platformItemId": "Forest of Wonder (fow)",
            "platformTypeId": "Slot Machines",
            "progressiveCode": "ls",
            "status": 0,
            "typeId": 10,
            "updatedTime": 1480645913000,
            "webStatus": 0
        }, {
            "brandGameId": "fth",
            "chsName": "财富山",
            "chtName": "财富山",
            "enName": "Fortune Hill",
            "gameTestUrl": "http://cache.download.banner.greatfortune88.com/casinoclient.html?mode=offline&language=zh-cn&affiliates=1&game=fth",
            "gameUrl": "http://cache.download.banner.greatfortune88.com/casinoclient.html?game=fth&language=zh-cn",
            "html5Status": 0,
            "id": 114,
            "imgUrl": "/static/sport/images/pt/game_icon/fth.jpg",
            "isProgressive": false,
            "isRecommend": false,
            "payLine": 2,
            "pcStatus": 0,
            "phoneStatus": 0,
            "platform": 2,
            "platformItemId": "Fortune Hill (fth)",
            "platformTypeId": "Slot Machines",
            "progressiveCode": "",
            "status": 0,
            "typeId": 10,
            "updatedTime": 1481790518000,
            "webStatus": 0
        }, {
            "brandGameId": "glg",
            "chsName": "黄金游戏　",
            "chtName": "黄金游戏　",
            "enName": "Golden Games",
            "gameTestUrl": "http://cache.download.banner.greatfortune88.com/casinoclient.html?mode=offline&language=zh-cn&affiliates=1&game=glg",
            "gameUrl": "http://cache.download.banner.greatfortune88.com/casinoclient.html?game=glg&language=zh-cn",
            "html5Status": 0,
            "id": 120,
            "imgUrl": "/static/sport/images/pt/game_icon/glg.jpg",
            "isProgressive": false,
            "isRecommend": false,
            "payLine": 2,
            "pcStatus": 0,
            "phoneStatus": 0,
            "platform": 2,
            "platformItemId": "Golden Games (glg)",
            "platformTypeId": "Slot Machines",
            "progressiveCode": "",
            "status": 0,
            "typeId": 10,
            "updatedTime": 1480645914000,
            "webStatus": 0
        }, {
            "brandGameId": "bib",
            "chsName": "湛蓝深海",
            "chtName": "湛蓝深海",
            "enName": "Great Blue",
            "gameTestUrl": "http://cache.download.banner.greatfortune88.com/casinoclient.html?mode=offline&language=zh-cn&affiliates=1&game=bib",
            "gameUrl": "http://cache.download.banner.greatfortune88.com/casinoclient.html?game=bib&language=zh-cn",
            "html5Status": 0,
            "id": 121,
            "imgUrl": "/static/sport/images/pt/game_icon/bib.jpg",
            "isProgressive": false,
            "isRecommend": false,
            "payLine": 2,
            "pcStatus": 0,
            "phoneStatus": 0,
            "platform": 2,
            "platformItemId": "Great Blue (bib)",
            "platformTypeId": "Slot Machines",
            "progressiveCode": "",
            "status": 0,
            "typeId": 10,
            "updatedTime": 1481790518000,
            "webStatus": 0
        }, {
            "brandGameId": "gtsjhw",
            "chsName": "约翰·韦恩",
            "chtName": "约翰·韦恩",
            "enName": "John Wayne",
            "gameTestUrl": "http://cache.download.banner.greatfortune88.com/casinoclient.html?mode=offline&language=zh-cn&affiliates=1&game=gtsjhw",
            "gameUrl": "http://cache.download.banner.greatfortune88.com/casinoclient.html?game=gtsjhw&language=zh-cn",
            "html5Status": 0,
            "id": 125,
            "imgUrl": "/static/sport/images/pt/game_icon/gtsjhw.jpg",
            "isProgressive": false,
            "isRecommend": false,
            "payLine": 2,
            "pcStatus": 0,
            "phoneStatus": 0,
            "platform": 2,
            "platformItemId": "John Wayne (gtsjhw)",
            "platformTypeId": "Slot Machines",
            "progressiveCode": "",
            "status": 0,
            "typeId": 10,
            "updatedTime": 1481790518000,
            "webStatus": 0
        }, {
            "brandGameId": "mmy",
            "chsName": "木乃伊",
            "chtName": "木乃伊",
            "enName": "The Mummy",
            "gameTestUrl": "http://cache.download.banner.greatfortune88.com/casinoclient.html?mode=offline&language=zh-cn&affiliates=1&game=mmy",
            "gameUrl": "http://cache.download.banner.greatfortune88.com/casinoclient.html?game=mmy&language=zh-cn",
            "html5Status": 0,
            "id": 130,
            "imgUrl": "/static/sport/images/pt/game_icon/mmy.jpg",
            "isProgressive": false,
            "isRecommend": false,
            "payLine": 2,
            "pcStatus": 0,
            "phoneStatus": 0,
            "platform": 2,
            "platformItemId": "The Mummy (mmy)",
            "platformTypeId": "Slot Machines",
            "progressiveCode": "",
            "status": 0,
            "typeId": 10,
            "updatedTime": 1481790518000,
            "webStatus": 0
        }, {
            "brandGameId": "jpgt",
            "chsName": "巨人传",
            "chtName": "巨人传",
            "enName": "Jackpot Giant",
            "gameTestUrl": "http://cache.download.banner.greatfortune88.com/casinoclient.html?mode=offline&language=zh-cn&affiliates=1&game=jpgt",
            "gameUrl": "http://cache.download.banner.greatfortune88.com/casinoclient.html?game=jpgt&language=zh-cn",
            "html5Status": 0,
            "id": 149,
            "imgUrl": "/static/sport/images/pt/game_icon/jpgt.jpg",
            "isProgressive": true,
            "isRecommend": false,
            "payLine": 3,
            "pcStatus": 0,
            "phoneStatus": 0,
            "platform": 2,
            "platformItemId": "Jackpot Giant (jpgt)",
            "platformTypeId": "Slot Machines",
            "progressiveCode": "jpgt1-1",
            "status": 0,
            "typeId": 10,
            "updatedTime": 1480645914000,
            "webStatus": 0
        }, {
            "brandGameId": "sol",
            "chsName": "好运连连",
            "chtName": "好运连连",
            "enName": "Streak of Luck",
            "gameTestUrl": "http://cache.download.banner.greatfortune88.com/casinoclient.html?mode=offline&language=zh-cn&affiliates=1&game=sol",
            "gameUrl": "http://cache.download.banner.greatfortune88.com/casinoclient.html?game=sol&language=zh-cn",
            "html5Status": 0,
            "id": 150,
            "imgUrl": "/static/sport/images/pt/game_icon/sol.jpg",
            "isProgressive": true,
            "isRecommend": false,
            "payLine": 3,
            "pcStatus": 0,
            "phoneStatus": 0,
            "platform": 2,
            "platformItemId": "Streak of Luck (sol)",
            "platformTypeId": "Slot Machines",
            "progressiveCode": "sol1",
            "status": 0,
            "typeId": 10,
            "updatedTime": 1480645914000,
            "webStatus": 0
        }, {
            "brandGameId": "gtscbl",
            "chsName": "牛仔与外星人",
            "chtName": "牛仔与外星人",
            "enName": "Cowboys & Aliens",
            "gameTestUrl": "http://cache.download.banner.greatfortune88.com/casinoclient.html?mode=offline&language=zh-cn&affiliates=1&game=gtscbl",
            "gameUrl": "http://cache.download.banner.greatfortune88.com/casinoclient.html?game=gtscbl&language=zh-cn",
            "html5Status": 0,
            "id": 159,
            "imgUrl": "/static/sport/images/pt/game_icon/gtscbl.jpg",
            "isProgressive": false,
            "isRecommend": false,
            "payLine": 2,
            "pcStatus": 0,
            "phoneStatus": 0,
            "platform": 2,
            "platformItemId": "Cowboys & Aliens (gtscbl)",
            "platformTypeId": "Slot Machines",
            "progressiveCode": "",
            "status": 0,
            "typeId": 10,
            "updatedTime": 1480645914000,
            "webStatus": 0
        }, {
            "brandGameId": "gtshwkp",
            "chsName": "漂移之王专业版",
            "chtName": "漂移之王专业版",
            "enName": "Highway Kings Pro",
            "gameTestUrl": "http://cache.download.banner.greatfortune88.com/casinoclient.html?mode=offline&language=zh-cn&affiliates=1&game=gtshwkp",
            "gameUrl": "http://cache.download.banner.greatfortune88.com/casinoclient.html?game=gtshwkp&language=zh-cn",
            "html5Status": 0,
            "id": 160,
            "imgUrl": "/static/sport/images/pt/game_icon/gtshwkp.jpg",
            "isProgressive": false,
            "isRecommend": false,
            "payLine": 2,
            "pcStatus": 0,
            "phoneStatus": 0,
            "platform": 2,
            "platformItemId": "Highway Kings Pro (gtshwkp)",
            "platformTypeId": "Slot Machines",
            "progressiveCode": "",
            "status": 0,
            "typeId": 10,
            "updatedTime": 1481790518000,
            "webStatus": 0
        }, {
            "brandGameId": "cm",
            "chsName": "中国厨房",
            "chtName": "中国厨房",
            "enName": "Chinese Kitchen",
            "gameTestUrl": "http://cache.download.banner.greatfortune88.com/casinoclient.html?mode=offline&language=zh-cn&affiliates=1&game=cm",
            "gameUrl": "http://cache.download.banner.greatfortune88.com/casinoclient.html?game=cm&language=zh-cn",
            "html5Status": 0,
            "id": 161,
            "imgUrl": "/static/sport/images/pt/game_icon/cm.jpg",
            "isProgressive": false,
            "isRecommend": false,
            "payLine": 2,
            "pcStatus": 0,
            "phoneStatus": 0,
            "platform": 2,
            "platformItemId": "Chinese Kitchen (cm)",
            "platformTypeId": "Slot Machines",
            "progressiveCode": "",
            "status": 0,
            "typeId": 10,
            "updatedTime": 1481790518000,
            "webStatus": 0
        }],
        "navigatePages": 8,
        "navigatepageNums": [1, 2, 3, 4, 5, 6, 7],
        "nextPage": 3,
        "pageNum": 2,
        "pageSize": 15,
        "pages": 7,
        "prePage": 1,
        "size": 15,
        "startRow": 16,
        "total": 104
    },
    "identifier": null
}